{
    "fluentMethods": true,
    "clientRootFolder": "",
    "relationships": [],
    "fields": [
        {
            "fieldName": "type",
            "fieldType": "String",
            "fieldValidateRules": [
                "required",
                "pattern"
            ],
            "fieldValidateRulesPattern": "^[a-zA-Z0-9_]*$"
        },
        {
            "fieldName": "boxCapacity",
            "fieldType": "Integer",
            "fieldValidateRules": [
                "required",
                "min"
            ],
            "fieldValidateRulesMin": 0
        }
    ],
    "changelogDate": "20180816060417",
    "dto": "mapstruct",
    "searchEngine": false,
    "service": "serviceImpl",
    "entityTableName": "car",
    "jpaMetamodelFiltering": false,
    "pagination": "pagination"
}
