{
    "fluentMethods": true,
    "clientRootFolder": "",
    "relationships": [
        {
            "relationshipName": "person",
            "otherEntityName": "person",
            "relationshipType": "many-to-one",
            "relationshipValidateRules": [
                "required"
            ],
            "otherEntityField": "type"
        },
        {
            "relationshipName": "car",
            "otherEntityName": "car",
            "relationshipType": "many-to-one",
            "relationshipValidateRules": [
                "required"
            ],
            "otherEntityField": "type"
        }
    ],
    "fields": [],
    "changelogDate": "20180816064025",
    "dto": "mapstruct",
    "searchEngine": false,
    "service": "serviceImpl",
    "entityTableName": "person_car",
    "jpaMetamodelFiltering": false,
    "pagination": "pagination"
}
