{
    "fluentMethods": true,
    "clientRootFolder": "",
    "relationships": [
        {
            "relationshipName": "car",
            "otherEntityName": "car",
            "relationshipType": "many-to-one",
            "relationshipValidateRules": [
                "required"
            ],
            "otherEntityField": "type"
        },
        {
            "relationshipName": "userPersonSet",
            "otherEntityName": "userPersonSet",
            "relationshipType": "many-to-one",
            "relationshipValidateRules": [
                "required"
            ],
            "otherEntityField": "id"
        }
    ],
    "fields": [
        {
            "fieldName": "color",
            "fieldType": "String"
        }
    ],
    "changelogDate": "20180816134627",
    "dto": "mapstruct",
    "searchEngine": false,
    "service": "serviceImpl",
    "entityTableName": "user_car_set",
    "jpaMetamodelFiltering": false,
    "pagination": "pagination"
}
